[gd_resource type="TileSet" load_steps=63 format=1]

[ext_resource path="res://assets/Tiles/Brown tiles/tileBrown_05.png" type="Texture" id=1]
[ext_resource path="res://assets/Tiles/Brown tiles/tileBrown_06.png" type="Texture" id=2]
[ext_resource path="res://assets/Other/signArrow_right.png" type="Texture" id=3]
[ext_resource path="res://assets/Other/signArrow_BR.png" type="Texture" id=4]
[ext_resource path="res://assets/Other/spikesHigh.png" type="Texture" id=5]
[ext_resource path="res://assets/Other/signArrow_down.png" type="Texture" id=6]
[ext_resource path="res://assets/Other/signArrow_TR.png" type="Texture" id=7]
[ext_resource path="res://assets/Other/blockRed.png" type="Texture" id=8]
[ext_resource path="res://assets/Other/blockRed_key.png" type="Texture" id=9]
[ext_resource path="res://assets/Other/blockGrey_broken.png" type="Texture" id=10]
[ext_resource path="res://assets/Tiles/Green tiles/tileGreen_22.png" type="Texture" id=11]
[ext_resource path="res://assets/Tiles/Green tiles/tileGreen_23.png" type="Texture" id=12]
[ext_resource path="res://assets/Tiles/Brown tiles/tileBrown_07.png" type="Texture" id=13]
[ext_resource path="res://assets/Tiles/Green tiles/tileGreen_16.png" type="Texture" id=14]
[ext_resource path="res://assets/Tiles/Green tiles/tileGreen_03.png" type="Texture" id=15]
[ext_resource path="res://assets/Tiles/Green tiles/tileGreen_28.png" type="Texture" id=16]
[ext_resource path="res://assets/Tiles/Green tiles/tileGreen_26.png" type="Texture" id=17]
[ext_resource path="res://assets/Tiles/Green tiles/tileGreen_27.png" type="Texture" id=18]
[ext_resource path="res://assets/Tiles/Green tiles/tileGreen_14.png" type="Texture" id=19]
[ext_resource path="res://assets/Tiles/Green tiles/tileGreen_13.png" type="Texture" id=20]
[ext_resource path="res://assets/Tiles/Green tiles/tileGreen_25.png" type="Texture" id=21]
[ext_resource path="res://assets/Tiles/Green tiles/tileGreen_24.png" type="Texture" id=22]
[ext_resource path="res://assets/Tiles/Green tiles/tileGreen_05.png" type="Texture" id=23]
[ext_resource path="res://assets/Tiles/Green tiles/tileGreen_09.png" type="Texture" id=24]
[ext_resource path="res://assets/Tiles/Green tiles/tileGreen_10.png" type="Texture" id=25]
[ext_resource path="res://assets/Tiles/Green tiles/tileGreen_18.png" type="Texture" id=26]
[ext_resource path="res://assets/Tiles/Green tiles/tileGreen_19.png" type="Texture" id=27]
[ext_resource path="res://assets/Tiles/Green tiles/tileGreen_29.png" type="Texture" id=28]
[ext_resource path="res://assets/Tiles/Green tiles/tileGreen_30.png" type="Texture" id=29]
[ext_resource path="res://assets/Tiles/Green tiles/tileGreen_31.png" type="Texture" id=30]
[ext_resource path="res://assets/Tiles/Green tiles/tileGreen_32.png" type="Texture" id=31]
[ext_resource path="res://assets/Tiles/Green tiles/tileGreen_06.png" type="Texture" id=32]
[ext_resource path="res://assets/Tiles/Green tiles/tileGreen_07.png" type="Texture" id=33]
[ext_resource path="res://assets/Tiles/Green tiles/tileGreen_04.png" type="Texture" id=34]
[ext_resource path="res://assets/Tiles/Green tiles/tileGreen_15.png" type="Texture" id=35]
[ext_resource path="res://assets/Tiles/Brown tiles/tileBrown_09.png" type="Texture" id=36]
[ext_resource path="res://assets/Other/blockGrey.png" type="Texture" id=37]

[sub_resource type="ConvexPolygonShape2D" id=1]

custom_solver_bias = 0.0
points = Vector2Array( 32, -32, 32, 32, -32, 32, -32, -32 )

[sub_resource type="ConvexPolygonShape2D" id=2]

custom_solver_bias = 0.0
points = Vector2Array( 32, -32, 32, 32, -32, 32, -32, -32 )

[sub_resource type="ConvexPolygonShape2D" id=3]

custom_solver_bias = 0.0
points = Vector2Array( 32, -32, 32, 32, -32, 32, -32, -32 )

[sub_resource type="ConvexPolygonShape2D" id=4]

custom_solver_bias = 0.0
points = Vector2Array( 32, -32, 32, 32, -32, 32, -32, -32 )

[sub_resource type="ConvexPolygonShape2D" id=5]

custom_solver_bias = 0.0
points = Vector2Array( 32, -32, 32, 32, -32, 32, -32, -32 )

[sub_resource type="ConvexPolygonShape2D" id=6]

custom_solver_bias = 0.0
points = Vector2Array( 32, -32, 32, 32, -32, 32, -32, -32 )

[sub_resource type="ConvexPolygonShape2D" id=7]

custom_solver_bias = 0.0
points = Vector2Array( 32, -32, 32, 32, -32, 32, -32, -32 )

[sub_resource type="ConvexPolygonShape2D" id=8]

custom_solver_bias = 0.0
points = Vector2Array( 32, -32, 32, 32, -32, 32, -32, -32 )

[sub_resource type="ConvexPolygonShape2D" id=9]

custom_solver_bias = 0.0
points = Vector2Array( 32, -32, 32, 32, -32, 32, -32, -32 )

[sub_resource type="ConvexPolygonShape2D" id=10]

custom_solver_bias = 0.0
points = Vector2Array( 32, -32, 32, 32, -32, 32, -32, -32 )

[sub_resource type="ConvexPolygonShape2D" id=11]

custom_solver_bias = 0.0
points = Vector2Array( 32, -32, 32, 32, -32, 32, -32, -32 )

[sub_resource type="ConvexPolygonShape2D" id=12]

custom_solver_bias = 0.0
points = Vector2Array( -32, -32, 32, -32, 32, 0, -32, 32 )

[sub_resource type="ConvexPolygonShape2D" id=13]

custom_solver_bias = 0.0
points = Vector2Array( -32, 0, -32, -32, 32, -32, 32, 32 )

[sub_resource type="ConvexPolygonShape2D" id=14]

custom_solver_bias = 0.0
points = Vector2Array( 32, -32, 32, 32, -32, 32, -32, -32 )

[sub_resource type="ConvexPolygonShape2D" id=15]

custom_solver_bias = 0.0
points = Vector2Array( 32, 32, -32, 32, 32, -32 )

[sub_resource type="ConvexPolygonShape2D" id=16]

custom_solver_bias = 0.0
points = Vector2Array( 32, 32, -32, 32, -32, -32 )

[sub_resource type="ConvexPolygonShape2D" id=17]

custom_solver_bias = 0.0
points = Vector2Array( -31.7801, -10.3023, -10.1729, -31.9095, 32, -32, 32, 32, -32, 32 )

[sub_resource type="ConvexPolygonShape2D" id=18]

custom_solver_bias = 0.0
points = Vector2Array( -32, -32, 10.3281, -31.8352, 31.6732, -10.2265, 32, 32, -32, 32 )

[sub_resource type="ConvexPolygonShape2D" id=19]

custom_solver_bias = 0.0
points = Vector2Array( 32, -32, 32, 32, -32, 32 )

[sub_resource type="ConvexPolygonShape2D" id=20]

custom_solver_bias = 0.0
points = Vector2Array( -32, -32, 32, -32, -32, 32 )

[sub_resource type="ConvexPolygonShape2D" id=21]

custom_solver_bias = 0.0
points = Vector2Array( 32, 32, -32, 32, -32, -32 )

[sub_resource type="ConvexPolygonShape2D" id=22]

custom_solver_bias = 0.0
points = Vector2Array( 32, -32, 32, 32, -32, -32 )

[sub_resource type="ConvexPolygonShape2D" id=23]

custom_solver_bias = 0.0
points = Vector2Array( 32, -32, 32, 32, -32, 32, -32, -32 )

[sub_resource type="ConvexPolygonShape2D" id=24]

custom_solver_bias = 0.0
points = Vector2Array( 32, -32, 32, 32, -32, 32, -32, -32 )

[sub_resource type="ConvexPolygonShape2D" id=25]

custom_solver_bias = 0.0
points = Vector2Array( 32, -32, 32, 32, -32, 32, -32, -32 )

[resource]

0/name = "lava_01"
0/texture = ExtResource( 1 )
0/tex_offset = Vector2( 0, 0 )
0/region = Rect2( 0, 0, 64, 53 )
0/occluder_offset = Vector2( 32, 26.5 )
0/navigation_offset = Vector2( 32, 26.5 )
0/shape_offset = Vector2( 32, 26.5 )
0/shapes = [ SubResource( 1 ) ]
1/name = "lava_02"
1/texture = ExtResource( 2 )
1/tex_offset = Vector2( 0, 0 )
1/region = Rect2( 0, 0, 64, 53 )
1/occluder_offset = Vector2( 32, 26.5 )
1/navigation_offset = Vector2( 32, 26.5 )
1/shape_offset = Vector2( 32, 26.5 )
1/shapes = [ SubResource( 2 ) ]
2/name = "lava_03"
2/texture = ExtResource( 13 )
2/tex_offset = Vector2( 0, 0 )
2/region = Rect2( 0, 0, 64, 53 )
2/occluder_offset = Vector2( 32, 26.5 )
2/navigation_offset = Vector2( 32, 26.5 )
2/shape_offset = Vector2( 32, 26.5 )
2/shapes = [ SubResource( 7 ) ]
3/name = "top"
3/texture = ExtResource( 23 )
3/tex_offset = Vector2( 0, 0 )
3/region = Rect2( 0, 0, 64, 64 )
3/occluder_offset = Vector2( 32, 32 )
3/navigation_offset = Vector2( 32, 32 )
3/shape_offset = Vector2( 32, 32 )
3/shapes = [ SubResource( 14 ) ]
4/name = "tileGreen_6"
4/texture = ExtResource( 32 )
4/tex_offset = Vector2( 0, 0 )
4/region = Rect2( 0, 0, 64, 64 )
4/occluder_offset = Vector2( 32, 32 )
4/navigation_offset = Vector2( 32, 32 )
4/shape_offset = Vector2( 32, 32 )
4/shapes = [ SubResource( 14 ) ]
5/name = "tileGreen_7"
5/texture = ExtResource( 33 )
5/tex_offset = Vector2( 0, 0 )
5/region = Rect2( 0, 0, 64, 64 )
5/occluder_offset = Vector2( 32, 32 )
5/navigation_offset = Vector2( 32, 32 )
5/shape_offset = Vector2( 32, 32 )
5/shapes = [ SubResource( 14 ) ]
6/name = "tileGreen_4"
6/texture = ExtResource( 34 )
6/tex_offset = Vector2( 0, 0 )
6/region = Rect2( 0, 0, 64, 64 )
6/occluder_offset = Vector2( 32, 32 )
6/navigation_offset = Vector2( 32, 32 )
6/shape_offset = Vector2( 32, 32 )
6/shapes = [ SubResource( 14 ) ]
7/name = "middle_01"
7/texture = ExtResource( 35 )
7/tex_offset = Vector2( 0, 0 )
7/region = Rect2( 0, 0, 64, 64 )
7/occluder_offset = Vector2( 32, 32 )
7/navigation_offset = Vector2( 32, 32 )
7/shape_offset = Vector2( 32, 32 )
7/shapes = [ SubResource( 23 ) ]
8/name = "lava_center"
8/texture = ExtResource( 36 )
8/tex_offset = Vector2( 0, 0 )
8/region = Rect2( 0, 0, 64, 64 )
8/occluder_offset = Vector2( 32, 32 )
8/navigation_offset = Vector2( 32, 32 )
8/shape_offset = Vector2( 32, 32 )
8/shapes = [ SubResource( 24 ) ]
9/name = "brownBox"
9/texture = ExtResource( 37 )
9/tex_offset = Vector2( 0, 0 )
9/region = Rect2( 0, 0, 64, 64 )
9/occluder_offset = Vector2( 32, 32 )
9/navigation_offset = Vector2( 32, 32 )
9/shape_offset = Vector2( 32, 32 )
9/shapes = [ SubResource( 25 ) ]
10/name = "SignArrow"
10/texture = ExtResource( 3 )
10/tex_offset = Vector2( 0, 10 )
10/region = Rect2( 0, 0, 48, 55 )
10/occluder_offset = Vector2( 24, 27.5 )
10/navigation_offset = Vector2( 24, 27.5 )
10/shape_offset = Vector2( 0, 0 )
10/shapes = [  ]
11/name = "SignArrow2"
11/texture = ExtResource( 4 )
11/tex_offset = Vector2( 0, 10 )
11/region = Rect2( 0, 0, 41, 55 )
11/occluder_offset = Vector2( 20.5, 27.5 )
11/navigation_offset = Vector2( 20.5, 27.5 )
11/shape_offset = Vector2( 0, 0 )
11/shapes = [  ]
12/name = "mountains"
12/texture = ExtResource( 5 )
12/tex_offset = Vector2( 0, 0 )
12/region = Rect2( 0, 0, 64, 30 )
12/occluder_offset = Vector2( 32, 15 )
12/navigation_offset = Vector2( 32, 15 )
12/shape_offset = Vector2( 0, 0 )
12/shapes = [  ]
13/name = "SignArrow3"
13/texture = ExtResource( 6 )
13/tex_offset = Vector2( 0, 10 )
13/region = Rect2( 0, 0, 39, 58 )
13/occluder_offset = Vector2( 19.5, 29 )
13/navigation_offset = Vector2( 19.5, 29 )
13/shape_offset = Vector2( 0, 0 )
13/shapes = [  ]
14/name = "SignArrow1"
14/texture = ExtResource( 7 )
14/tex_offset = Vector2( 0, 10 )
14/region = Rect2( 0, 0, 42, 55 )
14/occluder_offset = Vector2( 0, 0 )
14/navigation_offset = Vector2( 0, 0 )
14/shape_offset = Vector2( 0, 0 )
14/shapes = [  ]
15/name = "redBox"
15/texture = ExtResource( 8 )
15/tex_offset = Vector2( 0, 0 )
15/region = Rect2( 0, 0, 64, 64 )
15/occluder_offset = Vector2( 32, 32 )
15/navigation_offset = Vector2( 32, 32 )
15/shape_offset = Vector2( 32, 32 )
15/shapes = [ SubResource( 3 ) ]
16/name = "redBox2"
16/texture = ExtResource( 9 )
16/tex_offset = Vector2( 0, 0 )
16/region = Rect2( 0, 0, 64, 64 )
16/occluder_offset = Vector2( 32, 32 )
16/navigation_offset = Vector2( 32, 32 )
16/shape_offset = Vector2( 32, 32 )
16/shapes = [ SubResource( 3 ) ]
17/name = "brownBox_2"
17/texture = ExtResource( 10 )
17/tex_offset = Vector2( 0, 0 )
17/region = Rect2( 0, 0, 64, 64 )
17/occluder_offset = Vector2( 32, 32 )
17/navigation_offset = Vector2( 32, 32 )
17/shape_offset = Vector2( 32, 32 )
17/shapes = [ SubResource( 4 ) ]
18/name = "tileGreen_22"
18/texture = ExtResource( 11 )
18/tex_offset = Vector2( 0, 0 )
18/region = Rect2( 0, 0, 64, 64 )
18/occluder_offset = Vector2( 32, 32 )
18/navigation_offset = Vector2( 32, 32 )
18/shape_offset = Vector2( 32, 32 )
18/shapes = [ SubResource( 5 ) ]
19/name = "tileGreen_23"
19/texture = ExtResource( 12 )
19/tex_offset = Vector2( 0, 0 )
19/region = Rect2( 0, 0, 64, 64 )
19/occluder_offset = Vector2( 32, 32 )
19/navigation_offset = Vector2( 32, 32 )
19/shape_offset = Vector2( 32, 32 )
19/shapes = [ SubResource( 6 ) ]
20/name = "middle_03"
20/texture = ExtResource( 14 )
20/tex_offset = Vector2( 0, 0 )
20/region = Rect2( 0, 0, 64, 64 )
20/occluder_offset = Vector2( 32, 32 )
20/navigation_offset = Vector2( 32, 32 )
20/shape_offset = Vector2( 32, 32 )
20/shapes = [ SubResource( 8 ) ]
21/name = "bottom"
21/texture = ExtResource( 15 )
21/tex_offset = Vector2( 0, 0 )
21/region = Rect2( 0, 0, 64, 64 )
21/occluder_offset = Vector2( 32, 32 )
21/navigation_offset = Vector2( 32, 32 )
21/shape_offset = Vector2( 32, 32 )
21/shapes = [ SubResource( 9 ) ]
22/name = "no_body_bottom"
22/texture = ExtResource( 15 )
22/tex_offset = Vector2( 0, 0 )
22/region = Rect2( 0, 0, 64, 64 )
22/occluder_offset = Vector2( 32, 32 )
22/navigation_offset = Vector2( 32, 32 )
22/shape_offset = Vector2( 0, 0 )
22/shapes = [  ]
23/name = "no_body_fly_1"
23/texture = ExtResource( 16 )
23/tex_offset = Vector2( 0, 0 )
23/region = Rect2( 0, 0, 64, 50 )
23/occluder_offset = Vector2( 32, 25 )
23/navigation_offset = Vector2( 32, 25 )
23/shape_offset = Vector2( 0, 0 )
23/shapes = [  ]
24/name = "no_body_fly_2"
24/texture = ExtResource( 17 )
24/tex_offset = Vector2( 0, 0 )
24/region = Rect2( 0, 0, 64, 50 )
24/occluder_offset = Vector2( 32, 25 )
24/navigation_offset = Vector2( 32, 25 )
24/shape_offset = Vector2( 0, 0 )
24/shapes = [  ]
25/name = "no_body_fly_3"
25/texture = ExtResource( 18 )
25/tex_offset = Vector2( 0, 0 )
25/region = Rect2( 0, 0, 64, 50 )
25/occluder_offset = Vector2( 32, 25 )
25/navigation_offset = Vector2( 32, 25 )
25/shape_offset = Vector2( 0, 0 )
25/shapes = [  ]
26/name = "colission_mountain_left"
26/texture = ExtResource( 19 )
26/tex_offset = Vector2( 0, 0 )
26/region = Rect2( 0, 0, 64, 64 )
26/occluder_offset = Vector2( 32, 32 )
26/navigation_offset = Vector2( 32, 32 )
26/shape_offset = Vector2( 32, 32 )
26/shapes = [ SubResource( 10 ) ]
27/name = "colission_mountain_right"
27/texture = ExtResource( 20 )
27/tex_offset = Vector2( 0, 0 )
27/region = Rect2( 0, 0, 64, 64 )
27/occluder_offset = Vector2( 32, 32 )
27/navigation_offset = Vector2( 32, 32 )
27/shape_offset = Vector2( 32, 32 )
27/shapes = [ SubResource( 11 ) ]
28/name = "greenends_02"
28/texture = ExtResource( 21 )
28/tex_offset = Vector2( 0, 0 )
28/region = Rect2( 0, 0, 64, 64 )
28/occluder_offset = Vector2( 32, 32 )
28/navigation_offset = Vector2( 32, 32 )
28/shape_offset = Vector2( 32, 32 )
28/shapes = [ SubResource( 12 ) ]
29/name = "green ends"
29/texture = ExtResource( 22 )
29/tex_offset = Vector2( 0, 0 )
29/region = Rect2( 0, 0, 64, 64 )
29/occluder_offset = Vector2( 32, 32 )
29/navigation_offset = Vector2( 32, 32 )
29/shape_offset = Vector2( 32, 32 )
29/shapes = [ SubResource( 13 ) ]
30/name = "up"
30/texture = ExtResource( 24 )
30/tex_offset = Vector2( 0, 0 )
30/region = Rect2( 0, 0, 64, 64 )
30/occluder_offset = Vector2( 32, 32 )
30/navigation_offset = Vector2( 32, 32 )
30/shape_offset = Vector2( 32, 32 )
30/shapes = [ SubResource( 15 ) ]
31/name = "down"
31/texture = ExtResource( 25 )
31/tex_offset = Vector2( 0, 0 )
31/region = Rect2( 0, 0, 64, 64 )
31/occluder_offset = Vector2( 32, 32 )
31/navigation_offset = Vector2( 32, 32 )
31/shape_offset = Vector2( 32, 32 )
31/shapes = [ SubResource( 16 ) ]
32/name = "half_up"
32/texture = ExtResource( 26 )
32/tex_offset = Vector2( 0, 0 )
32/region = Rect2( 0, 0, 64, 64 )
32/occluder_offset = Vector2( 32, 32 )
32/navigation_offset = Vector2( 32, 32 )
32/shape_offset = Vector2( 32, 32 )
32/shapes = [ SubResource( 17 ) ]
33/name = "half_down"
33/texture = ExtResource( 27 )
33/tex_offset = Vector2( 0, 0 )
33/region = Rect2( 0, 0, 64, 64 )
33/occluder_offset = Vector2( 32, 32 )
33/navigation_offset = Vector2( 32, 32 )
33/shape_offset = Vector2( 32, 32 )
33/shapes = [ SubResource( 18 ) ]
34/name = "bottom1"
34/texture = ExtResource( 28 )
34/tex_offset = Vector2( 0, 0 )
34/region = Rect2( 0, 0, 64, 64 )
34/occluder_offset = Vector2( 32, 32 )
34/navigation_offset = Vector2( 32, 32 )
34/shape_offset = Vector2( 32, 32 )
34/shapes = [ SubResource( 19 ) ]
35/name = "bottom2"
35/texture = ExtResource( 29 )
35/tex_offset = Vector2( 0, 0 )
35/region = Rect2( 0, 0, 64, 64 )
35/occluder_offset = Vector2( 32, 32 )
35/navigation_offset = Vector2( 32, 32 )
35/shape_offset = Vector2( 32, 32 )
35/shapes = [ SubResource( 20 ) ]
36/name = "bottom3"
36/texture = ExtResource( 30 )
36/tex_offset = Vector2( 0, 0 )
36/region = Rect2( 0, 0, 64, 64 )
36/occluder_offset = Vector2( 32, 32 )
36/navigation_offset = Vector2( 32, 32 )
36/shape_offset = Vector2( 32, 32 )
36/shapes = [ SubResource( 21 ) ]
37/name = "bottom4"
37/texture = ExtResource( 31 )
37/tex_offset = Vector2( 0, 0 )
37/region = Rect2( 0, 0, 64, 64 )
37/occluder_offset = Vector2( 32, 32 )
37/navigation_offset = Vector2( 32, 32 )
37/shape_offset = Vector2( 32, 32 )
37/shapes = [ SubResource( 22 ) ]

